FinalProject
…
## See spec(...) for full column specifications.

#delete the first entry since it contains garbage values
hcb = hcb[-1,]
df <- hcb %>%
  #choose the relevant columns that we want to work with from hcb 
  select(1:12)
df

## # A tibble: 305 x 12
##    HRR   `Total Hospital~ `Total ICU Beds` `Available Hosp~ `Potentially Av~
##    <chr>            <dbl>            <dbl>            <dbl>            <dbl>
##  1 Abil~              980              127              565              772
##  2 Akro~             1358              186              518              938
##  3 Alam~             2695              293              665             1680
##  4 Alba~              704               60              221              462
##  5 Alba~             4804              425             1579             3191
##  6 Albu~             2908              380             1102             2005
##  7 Alex~              917               43              402              660
##  8 Alle~             3267              334             1267             2267
##  9 Alto~              555               61              234              394
## 10 Amar~             1236              194              678              957
## # ... with 295 more rows, and 7 more variables: `Available ICU Beds` <dbl>,
## #   `Potentially Available ICU Beds*` <dbl>, `Adult Population` <dbl>,
## #   `Population 65+` <dbl>, `Projected Infected Individuals` <dbl>, `Projected
## #   Hospitalized Individuals` <dbl>, `Projected Individuals Needing ICU
## #   Care` <dbl>
…
  summarize(`No. of Regions` = n_distinct(Town),
            `Total Hospital Beds` = sum(`Total Hospital Beds`), 
            `Hospital Beds Available` = sum(`Available Hospital Beds`),
            `Potential Hospital Beds Available` = sum(`Potentially Available Hospital Beds*`),
            `Total ICU Beds` = sum(`Total ICU Beds`), 
            `ICU Beds Available` = sum(`Available ICU Beds`),
            `Potential ICU Beds Available` = sum(`Potentially Available ICU Beds*`)
            )%>%
  mutate(`Rate of Hospital beds availability` = (`Hospital Beds Available`/`Total Hospital Beds`)*100)%>%
  mutate(`Rate of ICU beds availability` = (`ICU Beds Available`/`Total ICU Beds`)*100)%>%
  select(1,2,3,4,5,9,6,7,8,10)%>%
  arrange(State)
beds_df

## # A tibble: 51 x 10
##    State `No. of Regions` `Total Hospital~ `Hospital Beds ~ `Potential Hosp~
##    <chr>            <int>            <dbl>            <dbl>            <dbl>
##  1 AK                   1             1583              533             1058
##  2 AL                   6            14793             5282            10037
##  3 AR                   5             8560             4063             6311
##  4 AZ                   4            12590             4763             8676
##  5 CA                  24            68074            22585            45328
##  6 CO                   7            10335             4417             7376
##  7 CT                   3             7034             1731             4382
##  8 DC                   1             5055             1595             3325
##  9 DE                   1             1845              601             1223
## 10 FL                  17            53744            18464            36105
## # ... with 41 more rows, and 5 more variables: `Rate of Hospital beds
## #   availability` <dbl>, `Total ICU Beds` <dbl>, `ICU Beds Available` <dbl>,
## #   `Potential ICU Beds Available` <dbl>, `Rate of ICU beds availability` <dbl>

beds_df$`Rate of Hospital beds availability` = round(beds_df$`Rate of Hospital beds availability`, digits=2)
beds_df$`Rate of ICU beds availability` = round(beds_df$`Rate of ICU beds availability`, digits=2)

Step 2.2: Hospital Analysis - Scatter plot of Hospital Beds Occupied vs Available

To interprete this graph, we know that Hospital Beds Available <= Total Beds Available as a universal truth, therefore, a point which is higher on the y-axis is an indication that there are more beds available. Additionally, the closer the x axis is to 0 and a higher y axis point means that the hospital is operating extremely efficiently. From this plot, there seems be more concentration of points around x <= 20,000 and y <= 5,000; this means that roughly 25% hospital beds are available for most of these states. Ofcourse there are a few states which have more total beds but a higher ratio of occupied beds (>25%).

  hosp_df <- beds_df %>%
    select(1:6)%>%
    group_by(State, `No. of Regions`)%>%
    arrange(`Rate of Hospital beds availability`)
  hosp_df

## # A tibble: 51 x 6
## # Groups:   State, No. of Regions [51]
##    State `No. of Regions` `Total Hospital~ `Hospital Beds ~ `Potential Hosp~
##    <chr>            <int>            <dbl>            <dbl>            <dbl>
##  1 NY                  10            50102            11003            30554
##  2 CT                   3             7034             1731             4382
##  3 MA                   3            13352             3473             8412
##  4 MD                   3             8710             2368             5539
##  5 NV                   2             6051             1748             3899
##  6 NC                   9            22158             6610            14384
##  7 HI                   1             2623              795             1709
##  8 GA                   7            21861             6681            14270
##  9 ME                   2             3618             1110             2364
## 10 RI                   1             2249              690             1470
## # ... with 41 more rows, and 1 more variable: `Rate of Hospital beds
## #   availability` <dbl>
…
Part 3: ICU Analysis

Step 3.1: Scatter plot of ICU Beds Occupied vs Available

ICU beds occupancy is an interesting factor to observe simply because of its dependent nature, in other words, ICU beds occupancy is dependant on demographic factors like number of old people or number of hospitals in a given state. From the graph below, similar to the results from the Hospital beds version of this graph, has a lower concentration at lower x and y values. From color inspection is seems like most states are maintaining similar hospital beds and icu beds availability rate. The states within the concetration seem to show that roughy 50% of the icu beds are available. States with more hospital beds show lower availability rate (~30%).

  icu_df <- beds_df %>%
    select(1,2,7,8,9,10)%>%
    group_by(State, `No. of Regions`)%>%
    arrange(`Rate of ICU beds availability`)
  icu_df

## # A tibble: 51 x 6
## # Groups:   State, No. of Regions [51]
##    State `No. of Regions` `Total ICU Beds` `ICU Beds Avail~ `Potential ICU ~
##    <chr>            <int>            <dbl>            <dbl>            <dbl>
##  1 NV                   2             1167              290              729
##  2 DE                   1              237               62              149
##  3 RI                   1              293               82              188
##  4 GA                   7             2582              730             1656
##  5 TN                   7             2601              760             1679
##  6 NC                   9             3294              970             2133
##  7 SC                   5             1358              437              897
##  8 FL                  17             6433             2113             4269
##  9 AL                   6             1903              633             1268
## 10 HI                   1              219               73              146
## # ... with 41 more rows, and 1 more variable: `Rate of ICU beds
## #   availability` <dbl>
…
states_pop_df <- states_pop_df %>% 
  mutate(Risk_Level = (Projected_Hospitalized_Individuals + `Population 65+`) / Adult_Population) %>%
  arrange(desc(Risk_Level))

select(states_pop_df, State, Risk_Level)

## # A tibble: 51 x 2
##    State Risk_Level
##    <chr>      <dbl>
##  1 FL         0.284
##  2 WV         0.272
##  3 ME         0.270
##  4 MT         0.260
##  5 PA         0.257
##  6 SD         0.257
##  7 NH         0.256
##  8 HI         0.256
##  9 AZ         0.254
## 10 NM         0.251
## # ... with 41 more rows
…
